^D:\GITHUBANDGITLAB\RAW2FLR\0.1\WIN32\SOURCE\RAW2LFLR\STDAFX.CPP
/c /Zi /nologo /W3 /WX- /MP /Od /Oy- /D WIN32 /D NDEBUG /D _CONSOLE /D _MBCS /D _AFXDLL /Gm- /EHsc /MD /GS /Gy /fp:precise /Zc:wchar_t /Zc:forScope /Yc"StdAfx.h" /Fp"Release\Raw2lFLR.pch" /Fo"Release\\" /Fd"Release\vc100.pdb" /Gd /TP /analyze- /errorReport:prompt D:\GITHUBANDGITLAB\RAW2FLR\0.1\WIN32\SOURCE\RAW2LFLR\STDAFX.CPP
^D:\GITHUBANDGITLAB\RAW2FLR\0.1\WIN32\SOURCE\RAW2LFLR\FLR_P.CPP
/c /Zi /nologo /W3 /WX- /MP /Od /Oy- /D WIN32 /D NDEBUG /D _CONSOLE /D _MBCS /D _AFXDLL /Gm- /EHsc /MD /GS /Gy /fp:precise /Zc:wchar_t /Zc:forScope /Fo"Release\\" /Fd"Release\vc100.pdb" /Gd /TP /analyze- /errorReport:prompt D:\GITHUBANDGITLAB\RAW2FLR\0.1\WIN32\SOURCE\RAW2LFLR\FLR_P.CPP
^D:\GITHUBANDGITLAB\RAW2FLR\0.1\WIN32\SOURCE\RAW2LFLR\RAW_P.CPP
/c /Zi /nologo /W3 /WX- /MP /Od /Oy- /D WIN32 /D NDEBUG /D _CONSOLE /D _MBCS /D _AFXDLL /Gm- /EHsc /MD /GS /Gy /fp:precise /Zc:wchar_t /Zc:forScope /Fo"Release\\" /Fd"Release\vc100.pdb" /Gd /TP /analyze- /errorReport:prompt D:\GITHUBANDGITLAB\RAW2FLR\0.1\WIN32\SOURCE\RAW2LFLR\RAW_P.CPP
^D:\GITHUBANDGITLAB\RAW2FLR\0.1\WIN32\SOURCE\RAW2LFLR\RAW2LFLR.CPP
/c /Zi /nologo /W3 /WX- /MP /Od /Oy- /D WIN32 /D NDEBUG /D _CONSOLE /D _MBCS /D _AFXDLL /Gm- /EHsc /MD /GS /Gy /fp:precise /Zc:wchar_t /Zc:forScope /Fo"Release\\" /Fd"Release\vc100.pdb" /Gd /TP /analyze- /errorReport:prompt D:\GITHUBANDGITLAB\RAW2FLR\0.1\WIN32\SOURCE\RAW2LFLR\RAW2LFLR.CPP
